<?xml version="1.0" encoding="UTF-8" standalone="no"?>
<!-- Created with Inkscape (http://www.inkscape.org/) -->

<svg
   xmlns:dc="http://purl.org/dc/elements/1.1/"
   xmlns:cc="http://creativecommons.org/ns#"
   xmlns:rdf="http://www.w3.org/1999/02/22-rdf-syntax-ns#"
   xmlns:svg="http://www.w3.org/2000/svg"
   xmlns="http://www.w3.org/2000/svg"
   xmlns:xlink="http://www.w3.org/1999/xlink"
   xmlns:sodipodi="http://sodipodi.sourceforge.net/DTD/sodipodi-0.dtd"
   xmlns:inkscape="http://www.inkscape.org/namespaces/inkscape"
   width="128"
   height="128"
   viewBox="0 0 128 128"
   version="1.1"
   id="svg8"
   inkscape:version="0.92.4 5da689c313, 2019-01-14"
   sodipodi:docname="weissdorn.svg">
  <defs
     id="defs2">
    <linearGradient
       inkscape:collect="always"
       id="right_berry_stick">
      <stop
         style="stop-color:#005a05;stop-opacity:1"
         offset="0"
         id="stop4932" />
      <stop
         style="stop-color:#7f9823;stop-opacity:1"
         offset="1"
         id="stop4934" />
    </linearGradient>
    <linearGradient
       id="left_berry_stick-2"
       inkscape:collect="always">
      <stop
         id="stop4909"
         offset="0"
         style="stop-color:#086f00;stop-opacity:1;" />
      <stop
         id="stop4911"
         offset="1"
         style="stop-color:#7f9823;stop-opacity:1" />
    </linearGradient>
    <linearGradient
       inkscape:collect="always"
       id="middle_berry_stick-9">
      <stop
         style="stop-color:#086f00;stop-opacity:1;"
         offset="0"
         id="stop4873" />
      <stop
         style="stop-color:#64781c;stop-opacity:1"
         offset="1"
         id="stop4875" />
    </linearGradient>
    <linearGradient
       inkscape:collect="always"
       id="left_berry">
      <stop
         style="stop-color:#be0e2a;stop-opacity:1"
         offset="0"
         id="stop4764" />
      <stop
         style="stop-color:#f10e2a;stop-opacity:1"
         offset="1"
         id="stop4766" />
    </linearGradient>
    <linearGradient
       inkscape:collect="always"
       id="linearGradient4718">
      <stop
         style="stop-color:#ea2535;stop-opacity:1"
         offset="0"
         id="stop4714" />
      <stop
         style="stop-color:#df003b;stop-opacity:1"
         offset="1"
         id="stop4716" />
    </linearGradient>
    <linearGradient
       inkscape:collect="always"
       xlink:href="#linearGradient4718"
       id="linearGradient4720"
       x1="67.433693"
       y1="306.20197"
       x2="75.433693"
       y2="338.20197"
       gradientUnits="userSpaceOnUse"
       gradientTransform="translate(-3.433695,-246.20198)" />
    <linearGradient
       inkscape:collect="always"
       xlink:href="#left_berry"
       id="linearGradient4770"
       x1="40"
       y1="359.13333"
       x2="30"
       y2="337.13333"
       gradientUnits="userSpaceOnUse"
       gradientTransform="translate(2,-285.13333)" />
    <mask
       maskUnits="userSpaceOnUse"
       id="mask4848">
      <ellipse
         style="opacity:1;fill:#ffffff;fill-opacity:1;stroke:none;stroke-width:0.8897388;stroke-miterlimit:4;stroke-dasharray:none;stroke-opacity:1"
         id="ellipse4850"
         cx="43.54657"
         cy="83.753677"
         rx="18.40901"
         ry="20.641243"
         inkscape:label="shadow mask" />
    </mask>
    <linearGradient
       inkscape:collect="always"
       xlink:href="#left_berry_stick-2"
       id="linearGradient4879"
       x1="40"
       y1="56"
       x2="48"
       y2="48"
       gradientUnits="userSpaceOnUse"
       gradientTransform="translate(0,-20)" />
    <linearGradient
       inkscape:collect="always"
       xlink:href="#middle_berry_stick-9"
       id="linearGradient4889"
       x1="64"
       y1="88"
       x2="80"
       y2="24"
       gradientUnits="userSpaceOnUse"
       gradientTransform="translate(0,-20)" />
    <linearGradient
       inkscape:collect="always"
       xlink:href="#right_berry_stick"
       id="linearGradient4930"
       x1="80"
       y1="72"
       x2="88"
       y2="40"
       gradientUnits="userSpaceOnUse"
       gradientTransform="translate(0,-20)" />
  </defs>
  <sodipodi:namedview
     id="base"
     pagecolor="#ffffff"
     bordercolor="#666666"
     borderopacity="1.0"
     inkscape:pageopacity="0.0"
     inkscape:pageshadow="2"
     inkscape:zoom="2"
     inkscape:cx="55.425889"
     inkscape:cy="-9.3882418"
     inkscape:document-units="px"
     inkscape:current-layer="layer1"
     showgrid="true"
     inkscape:window-width="1920"
     inkscape:window-height="1016"
     inkscape:window-x="0"
     inkscape:window-y="27"
     inkscape:window-maximized="1"
     units="px"
     showguides="false">
    <inkscape:grid
       type="xygrid"
       id="grid29"
       empspacing="8" />
  </sodipodi:namedview>
  <metadata
     id="metadata5">
    <rdf:RDF>
      <cc:Work
         rdf:about="">
        <dc:format>image/svg+xml</dc:format>
        <dc:type
           rdf:resource="http://purl.org/dc/dcmitype/StillImage" />
        <dc:title />
      </cc:Work>
    </rdf:RDF>
  </metadata>
  <g
     inkscape:groupmode="layer"
     id="layer4"
     inkscape:label="Strich">
    <path
       style="fill:none;stroke:url(#linearGradient4879);stroke-width:2.9000001;stroke-linecap:round;stroke-linejoin:miter;stroke-miterlimit:4;stroke-dasharray:none;stroke-opacity:1"
       d="M 40,60 C 48,44 41.120429,51.720196 56,28"
       id="path4863"
       inkscape:connector-curvature="0"
       sodipodi:nodetypes="cc" />
    <path
       style="fill:none;fill-opacity:1;stroke:url(#linearGradient4889);stroke-width:2.5;stroke-linecap:round;stroke-linejoin:miter;stroke-miterlimit:4;stroke-dasharray:none;stroke-opacity:1"
       d="m 64,60 c 0,-8 8,-24 8,-32"
       id="path4881"
       inkscape:connector-curvature="0"
       sodipodi:nodetypes="cc" />
    <path
       style="fill:none;stroke:url(#linearGradient4930);stroke-width:2.5;stroke-linecap:round;stroke-linejoin:miter;stroke-miterlimit:4;stroke-dasharray:none;stroke-opacity:1"
       d="M 96,60 C 96,52 88,44 88,28"
       id="path4922"
       inkscape:connector-curvature="0"
       sodipodi:nodetypes="cc" />
  </g>
  <g
     inkscape:groupmode="layer"
     id="layer2"
     inkscape:label="Berry Middle">
    <path
       style="fill:url(#linearGradient4720);fill-opacity:1;stroke:none;stroke-width:0.82257932;stroke-linecap:butt;stroke-linejoin:miter;stroke-miterlimit:4;stroke-dasharray:none;stroke-opacity:1"
       d="m 52.566305,56.93135 c 6.853332,-5.89912 19.221473,-4.4102 24.320833,4.8822 5.099293,9.29259 3.132525,26.32726 -3.720744,32.22634 C 66.313114,99.9391 53.944891,98.45018 48.845538,89.15771 43.7462,79.86519 45.713017,62.83053 52.566316,56.93139 Z"
       id="path4574-9-2"
       inkscape:connector-curvature="0"
       sodipodi:nodetypes="sssss" />
    <path
       style="fill:#130806;fill-opacity:1;stroke:none;stroke-width:0.98271024px;stroke-linecap:butt;stroke-linejoin:miter;stroke-opacity:1"
       d="m 50.340389,79.52323 c 4.363892,3.3543 5.267451,3.01283 8.727797,6.70868 0.525815,-3.55248 -1.132254,-4.83173 2.581919,-12.84218 2.432745,5.8531 4.054635,9.75514 3.713269,13.6973 L 72,84 c 0,0 1.701384,9.57543 -1.822064,12.70975 -2.199989,1.95717 -7.396519,3.21941 -7.396519,3.21941 -3.192898,0.41254 -6.370903,0.1134 -9.474885,-3.74157 -1.45463,-1.11805 -3.158251,-1.24717 -5.110812,-0.38717 0.490692,-6.22049 2.395612,-7.6187 4.609238,-7.96459 -3.273163,-2.27367 -3.180713,-5.38725 -2.464775,-8.31189 z"
       id="path4576-3-5"
       inkscape:connector-curvature="0"
       sodipodi:nodetypes="cccccsccccc" />
    <path
       style="fill:#ffffff;fill-opacity:0.25954201;stroke:none;stroke-width:0.98271024px;stroke-linecap:butt;stroke-linejoin:miter;stroke-opacity:1"
       d="m 54.832562,92.71265 c 8.513257,-3.9817 12.473134,-1.63305 14.521617,-0.78855 4.602358,1.89669 -4.930593,6.67601 -8.162357,6.56154 -2.616934,-0.0926 -10.898306,-3.64936 -6.359273,-5.77276 z"
       id="path4597-4-4"
       inkscape:connector-curvature="0"
       sodipodi:nodetypes="ssss" />
    <path
       style="fill:#000000;fill-opacity:0.41153852;stroke:none;stroke-width:0.82257932;stroke-linecap:butt;stroke-linejoin:miter;stroke-miterlimit:4;stroke-dasharray:none;stroke-opacity:1"
       d="m 52.566788,76.931697 c 6.853332,-5.89912 19.221473,-4.4102 24.320835,4.8822 5.09929,9.29259 3.13252,26.327263 -3.720746,32.226343 -6.85328,5.89921 -19.221503,4.41029 -24.320856,-4.88218 C 43.746683,99.865537 45.7135,82.830877 52.566799,76.931737 Z"
       id="path4574-9-2-3"
       inkscape:connector-curvature="0"
       sodipodi:nodetypes="sssss"
       mask="url(#mask4848)"
       inkscape:label="shadow"
       transform="translate(0,-20)" />
  </g>
  <g
     inkscape:label="Right Berry"
     inkscape:groupmode="layer"
     id="layer1"
     transform="translate(0,-263.13333)">
    <path
       style="fill:#f00329;fill-opacity:1;stroke:none;stroke-width:0.63805073;stroke-linecap:butt;stroke-linejoin:miter;stroke-miterlimit:4;stroke-dasharray:none;stroke-opacity:1"
       d="m 87.23618,317.79128 c 2.936148,-6.59465 12.629641,-11.3245 19.76916,-8.14583 7.13953,3.17878 11.85289,14.13783 8.91678,20.73244 -2.93608,6.59465 -12.62964,11.32453 -19.76917,8.14584 -7.139544,-3.17873 -11.852863,-14.1378 -8.916744,-20.73242 z"
       id="path4574-9"
       inkscape:connector-curvature="0"
       sodipodi:nodetypes="sssss" />
    <path
       style="fill:#130806;fill-opacity:1;stroke:none;stroke-width:0.7622596px;stroke-linecap:butt;stroke-linejoin:miter;stroke-opacity:1"
       d="M 104.17766,330.34047 C 103.00209,328.12936 103,326.13333 104,323.13333 c 2,1 4,3 4.82332,4.26917 L 112,323.13333 c 0,0 2,2 3.00525,3.71369 C 117,326.13333 117,325.13333 118,323.13333 c 1,5 -1.34839,5.48331 -1.75397,6.8871 -0.6502,2.25046 -3.63581,5.74328 -3.63581,5.74328 -1.99112,1.94917 -4.27922,3.50422 -8.05121,3.09055 C 103.0884,339.03389 99,340.13333 97,339.13333 c 2.084133,-2.27819 3.97798,-2.1105 4.26079,-3.8233 -0.78262,0.0541 -3.26079,-3.1767 -3.26079,-3.1767 0,0 1.204524,-0.29777 6.17766,-1.79286 z"
       id="path4576-3"
       inkscape:connector-curvature="0"
       sodipodi:nodetypes="ccccccscccccc" />
    <path
       style="fill:#ffffff;fill-opacity:0.25954201;stroke:none;stroke-width:0.7622596px;stroke-linecap:butt;stroke-linejoin:miter;stroke-opacity:1"
       d="m 104.09645,336.14509 c 4.06556,-6.76026 7.76911,-7.62613 9.52514,-8.27501 3.94501,-1.45824 -0.46915,6.28568 -2.71406,7.97 -1.81781,1.3639 -8.97844,3.90976 -6.81099,0.30514 z"
       id="path4597-4"
       inkscape:connector-curvature="0"
       sodipodi:nodetypes="ssss" />
    <ellipse
       style="opacity:1;fill:#ffffff;fill-opacity:0.67938944;stroke:none;stroke-width:1.40533137;stroke-miterlimit:4;stroke-dasharray:none"
       id="path4580-5"
       cx="227.20392"
       cy="-311.58441"
       rx="5.4692359"
       ry="3.5707803"
       transform="matrix(-0.74229011,0.67007864,-0.85240326,-0.52288496,0,0)" />
  </g>
  <g
     inkscape:groupmode="layer"
     id="layer3"
     inkscape:label="Left Berry"
     style="display:inline">
    <path
       style="fill:url(#linearGradient4770);fill-opacity:1;stroke:none;stroke-width:0.83705181;stroke-linecap:butt;stroke-linejoin:miter;stroke-miterlimit:4;stroke-dasharray:none;stroke-opacity:1"
       d="m 34,42 c 9.47016,0 20.3112,9.09354 20.3112,19.3462 0,10.25266 -10.619084,21.74916 -20.089244,21.74916 -9.470159,0 -20.311199,-9.09354 -20.311199,-19.3462 C 13.910757,53.4965 24.529841,42 34,42 Z"
       id="path4574"
       inkscape:connector-curvature="0"
       sodipodi:nodetypes="sssss" />
    <path
       style="fill:#130806;fill-opacity:1;stroke:none;stroke-width:1px;stroke-linecap:butt;stroke-linejoin:miter;stroke-opacity:1"
       d="m 24,63 c 2,2 4,4 4,6 1,-1 3,-2 7,-3 1,3 -1,6 -1,7 6.437738,1.91826 5.565312,0.76416 8,1 0,0 -2.301712,8.61764 -7.176777,9.29289 C 31.779105,83.71454 26,82 26,82 c -3.398507,-1.34613 -6.483126,-3.25865 -8,-8 -1,-1.66667 -2.666667,-2.66667 -5,-3 3.107401,-4.75904 5.618736,-4.88503 8,-4 0,-1 1.049322,-2.01766 3,-4 z"
       id="path4576"
       inkscape:connector-curvature="0"
       sodipodi:nodetypes="cccccsccccc" />
    <ellipse
       style="opacity:1;fill:#ffffff;fill-opacity:0.67938944;stroke:none;stroke-width:2.13125825;stroke-miterlimit:4;stroke-dasharray:none"
       id="path4580"
       cx="28.639435"
       cy="-60.501377"
       rx="8.2933369"
       ry="5.4159565"
       transform="matrix(-0.74276818,0.66954868,-0.85273742,-0.52233982,0,0)" />
    <path
       style="fill:#ffffff;fill-opacity:0.25954201;stroke:none;stroke-width:1px;stroke-linecap:butt;stroke-linejoin:miter;stroke-opacity:1"
       d="m 21,72 c 10.271368,1.26525 13.285196,5.24193 15,7 3.85266,3.94986 -7.78359,2.79172 -11,1 -2.604573,-1.45089 -9.476257,-8.67458 -4,-8 z"
       id="path4597"
       inkscape:connector-curvature="0"
       sodipodi:nodetypes="ssss" />
  </g>
</svg>
